[gd_resource type="Environment" load_steps=2 format=2]

[sub_resource type="ProceduralSky" id=1]

[resource]
background_mode = 2
background_sky = SubResource( 1 )
ambient_light_color = Color( 0.647059, 0.647059, 0.647059, 1 )
fog_enabled = true
tonemap_mode = 1
auto_exposure_enabled = true

