[gd_scene load_steps=3 format=2]

[sub_resource type="BoxShape" id=1]

[sub_resource type="SpatialMaterial" id=2]
albedo_color = Color( 0.862745, 0.862745, 0.862745, 1 )

[node name="CollisionBox" type="StaticBody"]

[node name="CollisionShape" type="CollisionShape" parent="."]
shape = SubResource( 1 )

[node name="CubeMesh" type="CSGBox" parent="."]
material = SubResource( 2 )

